<?xml version="1.0" encoding="UTF-8"?>
<svg width="8px" height="12px" viewBox="0 0 8 12" version="1.1" xmlns="http://www.w3.org/2000/svg" xmlns:xlink="http://www.w3.org/1999/xlink">
    <!-- Generator: Sketch 54.1 (76490) - https://sketchapp.com -->
    <title>icon color</title>
    <desc>Created with Sketch.</desc>
    <defs>
        <path d="M4,0 L7.5,4 L0.5,4 L4,0 Z M4,12 L0.5,8 L7.5,8 L4,12 Z" id="path-1"></path>
    </defs>
    <g id="Edit-here" stroke="none" stroke-width="1" fill="none" fill-rule="evenodd">
        <g id="New-Runbook---DRAFT-(Step-2)" transform="translate(-507.000000, -28.000000)">
            <g id="icon/navigation/caret/sort/16" transform="translate(507.000000, 28.000000)">
                <mask id="mask-2" fill="white">
                    <use xlink:href="#path-1"></use>
                </mask>
                <use id="icon-color" fill="#171717" xlink:href="#path-1"></use>
            </g>
        </g>
    </g>
</svg>