<?xml version="1.0" encoding="UTF-8"?>
<svg width="10px" height="10px" viewBox="0 0 10 10" version="1.1" xmlns="http://www.w3.org/2000/svg" xmlns:xlink="http://www.w3.org/1999/xlink">
    <!-- Generator: Sketch 54.1 (76490) - https://sketchapp.com -->
    <title>icon color</title>
    <desc>Created with Sketch.</desc>
    <defs>
        <polygon id="path-1" points="442.5 186.5 442.5 182.5 441.5 182.5 441.5 186.5 437.5 186.5 437.5 187.5 441.5 187.5 441.5 191.5 442.5 191.5 442.5 187.5 446.5 187.5 446.5 186.5"></polygon>
    </defs>
    <g id="Page-1" stroke="none" stroke-width="1" fill="none" fill-rule="evenodd">
        <g id="Artboard" transform="translate(-437.000000, -182.000000)">
            <mask id="mask-2" fill="white">
                <use xlink:href="#path-1"></use>
            </mask>
            <use id="icon-color" fill="#8C8C8C" xlink:href="#path-1"></use>
        </g>
    </g>
</svg>